\relax 
\providecommand\HyperFirstAtBeginDocument{\AtBeginDocument}
\HyperFirstAtBeginDocument{\ifx\hyper@anchor\@undefined
\global\let\oldcontentsline\contentsline
\gdef\contentsline#1#2#3#4{\oldcontentsline{#1}{#2}{#3}}
\global\let\oldnewlabel\newlabel
\gdef\newlabel#1#2{\newlabelxx{#1}#2}
\gdef\newlabelxx#1#2#3#4#5#6{\oldnewlabel{#1}{{#2}{#3}}}
\AtEndDocument{\ifx\hyper@anchor\@undefined
\let\contentsline\oldcontentsline
\let\newlabel\oldnewlabel
\fi}
\fi}
\global\let\hyper@last\relax 
\gdef\HyperFirstAtBeginDocument#1{#1}
\providecommand\HyField@AuxAddToFields[1]{}
\select@language{english}
\@writefile{toc}{\select@language{english}}
\@writefile{lof}{\select@language{english}}
\@writefile{lot}{\select@language{english}}
\newlabel{index::doc}{{}{1}{\relax }{section*.2}{}}
\@writefile{toc}{\contentsline {chapter}{\numberline {1}Introduction}{3}{chapter.1}}
\@writefile{lof}{\addvspace {10\p@ }}
\@writefile{lot}{\addvspace {10\p@ }}
\newlabel{intro:introduction}{{1}{3}{Introduction\relax }{chapter.1}{}}
\newlabel{intro:welcome-to-shaneao-s-documentation}{{1}{3}{Introduction\relax }{chapter.1}{}}
\newlabel{intro::doc}{{1}{3}{Introduction\relax }{chapter.1}{}}
\@writefile{toc}{\contentsline {chapter}{\numberline {2}Basic introduction to the rtc.py and rtc2.c codes}{5}{chapter.2}}
\@writefile{lof}{\addvspace {10\p@ }}
\@writefile{lot}{\addvspace {10\p@ }}
\newlabel{intro:basic-introduction-to-the-rtc-py-and-rtc2-c-codes}{{2}{5}{Basic introduction to the rtc.py and rtc2.c codes\relax }{chapter.2}{}}
\@writefile{toc}{\contentsline {chapter}{\numberline {3}RTC}{7}{chapter.3}}
\@writefile{lof}{\addvspace {10\p@ }}
\@writefile{lot}{\addvspace {10\p@ }}
\newlabel{rtc::doc}{{3}{7}{RTC\relax }{chapter.3}{}}
\newlabel{rtc:rtc}{{3}{7}{RTC\relax }{chapter.3}{}}
\newlabel{rtc:id1}{{3}{7}{RTC\relax }{chapter.3}{}}
\newlabel{rtc:module-rtc}{{3}{7}{RTC\relax }{section*.3}{}}
\newlabel{rtc:rtc.rtc}{{3}{7}{RTC\relax }{section*.4}{}}
\newlabel{rtc:rtc.rtc.close_loop}{{3}{7}{RTC\relax }{section*.5}{}}
\newlabel{rtc:rtc.rtc.go}{{3}{7}{RTC\relax }{section*.6}{}}
\newlabel{rtc:rtc.rtc.load}{{3}{7}{RTC\relax }{section*.7}{}}
\newlabel{rtc:rtc.rtc.manyStep}{{3}{8}{RTC\relax }{section*.8}{}}
\newlabel{rtc:rtc.rtc.oneStep}{{3}{8}{RTC\relax }{section*.9}{}}
\newlabel{rtc:rtc.rtc.open_loop}{{3}{8}{RTC\relax }{section*.10}{}}
\newlabel{rtc:rtc.rtc.set_gain}{{3}{8}{RTC\relax }{section*.11}{}}
\newlabel{rtc:rtc.rtc.status}{{3}{8}{RTC\relax }{section*.12}{}}
\newlabel{rtc:rtc.rtc.stop}{{3}{8}{RTC\relax }{section*.13}{}}
\@writefile{toc}{\contentsline {section}{\numberline {3.1}RTC class data}{8}{section.3.1}}
\newlabel{rtc:rtc-class-data}{{3.1}{8}{RTC class data\relax }{section.3.1}{}}
\newlabel{rtc:rtc.pdict8x}{{3.1}{8}{RTC class data\relax }{section*.14}{}}
\newlabel{rtc:rtc.pdict16x}{{3.1}{8}{RTC class data\relax }{section*.15}{}}
\newlabel{rtc:rtc.pdict30x}{{3.1}{8}{RTC class data\relax }{section*.16}{}}
\@writefile{toc}{\contentsline {section}{\numberline {3.2}RTC instance data}{8}{section.3.2}}
\newlabel{rtc:rtc-instance-data}{{3.2}{8}{RTC instance data\relax }{section.3.2}{}}
\newlabel{rtc:module-self}{{3.2}{8}{RTC instance data\relax }{section*.17}{}}
\newlabel{rtc:self.gain}{{3.2}{8}{RTC instance data\relax }{section*.18}{}}
\newlabel{rtc:self.controlMatrix}{{3.2}{8}{RTC instance data\relax }{section*.19}{}}
\newlabel{rtc:self.cm}{{3.2}{8}{RTC instance data\relax }{section*.20}{}}
\newlabel{rtc:self.mode}{{3.2}{8}{RTC instance data\relax }{section*.21}{}}
\newlabel{rtc:self.loop}{{3.2}{8}{RTC instance data\relax }{section*.22}{}}
\@writefile{toc}{\contentsline {section}{\numberline {3.3}To Do}{9}{section.3.3}}
\newlabel{rtc:to-do}{{3.3}{9}{To Do\relax }{section.3.3}{}}
\@writefile{toc}{\contentsline {chapter}{\numberline {4}RTC2}{11}{chapter.4}}
\@writefile{lof}{\addvspace {10\p@ }}
\@writefile{lot}{\addvspace {10\p@ }}
\newlabel{rtc2:rtc2}{{4}{11}{RTC2\relax }{chapter.4}{}}
\newlabel{rtc2::doc}{{4}{11}{RTC2\relax }{chapter.4}{}}
\newlabel{rtc2:id1}{{4}{11}{RTC2\relax }{chapter.4}{}}
\newlabel{rtc2:init}{{4}{11}{RTC2\relax }{section*.23}{}}
\newlabel{rtc2:param_list}{{4}{11}{RTC2\relax }{section*.24}{}}
\newlabel{rtc2:hello_world}{{4}{11}{RTC2\relax }{section*.25}{}}
\newlabel{rtc2:get_state}{{4}{11}{RTC2\relax }{section*.26}{}}
\newlabel{rtc2:set_state}{{4}{11}{RTC2\relax }{section*.27}{}}
\newlabel{rtc2:set_sizes}{{4}{11}{RTC2\relax }{section*.28}{}}
\newlabel{rtc2:set_verbosity}{{4}{11}{RTC2\relax }{section*.29}{}}
\newlabel{rtc2:load}{{4}{11}{RTC2\relax }{section*.30}{}}
\newlabel{rtc2:iload}{{4}{11}{RTC2\relax }{section*.31}{}}
\newlabel{rtc2:peek}{{4}{11}{RTC2\relax }{section*.32}{}}
\@writefile{toc}{\contentsline {chapter}{\numberline {5}RTC File System}{13}{chapter.5}}
\@writefile{lof}{\addvspace {10\p@ }}
\@writefile{lot}{\addvspace {10\p@ }}
\newlabel{file-system:file-system}{{5}{13}{RTC File System\relax }{chapter.5}{}}
\newlabel{file-system::doc}{{5}{13}{RTC File System\relax }{chapter.5}{}}
\newlabel{file-system:rtc-file-system}{{5}{13}{RTC File System\relax }{chapter.5}{}}
\@writefile{toc}{\contentsline {section}{\numberline {5.1}Files in the current system}{14}{section.5.1}}
\newlabel{file-system:files-in-the-current-system}{{5.1}{14}{Files in the current system\relax }{section.5.1}{}}
\@writefile{toc}{\contentsline {chapter}{\numberline {6}Scripts}{15}{chapter.6}}
\@writefile{lof}{\addvspace {10\p@ }}
\@writefile{lot}{\addvspace {10\p@ }}
\newlabel{scripts:id1}{{6}{15}{Scripts\relax }{chapter.6}{}}
\newlabel{scripts::doc}{{6}{15}{Scripts\relax }{chapter.6}{}}
\newlabel{scripts:scripts}{{6}{15}{Scripts\relax }{chapter.6}{}}
\@writefile{toc}{\contentsline {section}{\numberline {6.1}WFS}{15}{section.6.1}}
\newlabel{wfs:wfs}{{6.1}{15}{WFS\relax }{section.6.1}{}}
\newlabel{wfs:module-wfs}{{6.1}{15}{WFS\relax }{section.6.1}{}}
\newlabel{wfs::doc}{{6.1}{15}{WFS\relax }{section.6.1}{}}
\newlabel{wfs:wfs.wfs}{{6.1}{15}{WFS\relax }{section*.33}{}}
\newlabel{wfs:wfs.wfs.Hmatrix}{{6.1}{15}{WFS\relax }{section*.34}{}}
\newlabel{wfs:wfs.wfs.Rmatrix}{{6.1}{15}{WFS\relax }{section*.35}{}}
\newlabel{wfs:wfs.wfs.gmodes}{{6.1}{16}{WFS\relax }{section*.36}{}}
\newlabel{wfs:wfs.wfs.m2a}{{6.1}{16}{WFS\relax }{section*.37}{}}
\newlabel{wfs:wfs.wfs.sense}{{6.1}{16}{WFS\relax }{section*.38}{}}
\newlabel{wfs:wfs.wfs.show}{{6.1}{16}{WFS\relax }{section*.39}{}}
\newlabel{wfs:wfs.wfs.subaps}{{6.1}{17}{WFS\relax }{section*.40}{}}
\newlabel{wfs:wfs.wfs.type}{{6.1}{17}{WFS\relax }{section*.41}{}}
\newlabel{wfs:wfs.wfs.zmodes}{{6.1}{17}{WFS\relax }{section*.42}{}}
\@writefile{toc}{\contentsline {section}{\numberline {6.2}Tweeter}{17}{section.6.2}}
\newlabel{tweeter::doc}{{6.2}{17}{Tweeter\relax }{section.6.2}{}}
\newlabel{tweeter:tweeter}{{6.2}{17}{Tweeter\relax }{section.6.2}{}}
\newlabel{tweeter:module-tweeter}{{6.2}{17}{Tweeter\relax }{section.6.2}{}}
\newlabel{tweeter:tweeter.tweeter}{{6.2}{17}{Tweeter\relax }{section*.43}{}}
\@writefile{toc}{\contentsline {section}{\numberline {6.3}IDL scripts}{18}{section.6.3}}
\newlabel{scripts:idl-scripts}{{6.3}{18}{IDL scripts\relax }{section.6.3}{}}
\@writefile{toc}{\contentsline {chapter}{\numberline {7}Graphical User Interface}{19}{chapter.7}}
\@writefile{lof}{\addvspace {10\p@ }}
\@writefile{lot}{\addvspace {10\p@ }}
\newlabel{GUI:gui}{{7}{19}{Graphical User Interface\relax }{chapter.7}{}}
\newlabel{GUI::doc}{{7}{19}{Graphical User Interface\relax }{chapter.7}{}}
\newlabel{GUI:graphical-user-interface}{{7}{19}{Graphical User Interface\relax }{chapter.7}{}}
\@writefile{toc}{\contentsline {chapter}{\numberline {8}Advanced Topics}{21}{chapter.8}}
\@writefile{lof}{\addvspace {10\p@ }}
\@writefile{lot}{\addvspace {10\p@ }}
\newlabel{drivers:advanced-topics}{{8}{21}{Advanced Topics\relax }{chapter.8}{}}
\newlabel{drivers:drivers}{{8}{21}{Advanced Topics\relax }{chapter.8}{}}
\newlabel{drivers::doc}{{8}{21}{Advanced Topics\relax }{chapter.8}{}}
\@writefile{toc}{\contentsline {section}{\numberline {8.1}\texttt  {dpio2} - Initialize and Drive the Tweeter DM}{21}{section.8.1}}
\newlabel{dpio2:dpio2-initialize-and-drive-the-tweeter-dm}{{8.1}{21}{\texttt {dpio2} - Initialize and Drive the Tweeter DM\relax }{section.8.1}{}}
\newlabel{dpio2::doc}{{8.1}{21}{\texttt {dpio2} - Initialize and Drive the Tweeter DM\relax }{section.8.1}{}}
\newlabel{dpio2:dpio2}{{8.1}{21}{\texttt {dpio2} - Initialize and Drive the Tweeter DM\relax }{section.8.1}{}}
\@writefile{toc}{\contentsline {subsection}{\numberline {8.1.1}\emph  {class} Output}{21}{subsection.8.1.1}}
\newlabel{dpio2:class-output}{{8.1.1}{21}{\emph {class} Output\relax }{subsection.8.1.1}{}}
\newlabel{dpio2:dpio2.Output}{{8.1.1}{21}{\emph {class} Output\relax }{section*.44}{}}
\@writefile{toc}{\contentsline {subsubsection}{Methods}{21}{subsubsection*.45}}
\newlabel{dpio2:methods}{{8.1.1}{21}{Methods\relax }{subsubsection*.45}{}}
\newlabel{dpio2:dpio2.Output.write}{{8.1.1}{21}{Methods\relax }{section*.46}{}}
\newlabel{dpio2:dpio2.Output.current}{{8.1.1}{21}{Methods\relax }{section*.47}{}}
\newlabel{dpio2:dpio2.Output.logging}{{8.1.1}{21}{Methods\relax }{section*.48}{}}
\newlabel{dpio2:dpio2.Output.stdout}{{8.1.1}{21}{Methods\relax }{section*.49}{}}
\newlabel{dpio2:dpio2.Output.timing}{{8.1.1}{21}{Methods\relax }{section*.50}{}}
\@writefile{toc}{\contentsline {subsubsection}{Data}{22}{subsubsection*.51}}
\newlabel{dpio2:data}{{8.1.1}{22}{Data\relax }{subsubsection*.51}{}}
\newlabel{dpio2:dpio2.Output.buffer_size}{{8.1.1}{22}{Data\relax }{section*.52}{}}
\newlabel{dpio2:dpio2.Output.device}{{8.1.1}{22}{Data\relax }{section*.53}{}}
\newlabel{dpio2:dpio2.Output.frequency}{{8.1.1}{22}{Data\relax }{section*.54}{}}
\@writefile{toc}{\contentsline {section}{\numberline {8.2}EDT - \texttt  {edt} Camera driver module}{22}{section.8.2}}
\newlabel{edt:edt-edt-camera-driver-module}{{8.2}{22}{EDT - \texttt {edt} Camera driver module\relax }{section.8.2}{}}
\newlabel{edt::doc}{{8.2}{22}{EDT - \texttt {edt} Camera driver module\relax }{section.8.2}{}}
\newlabel{edt:edt}{{8.2}{22}{EDT - \texttt {edt} Camera driver module\relax }{section.8.2}{}}
\@writefile{toc}{\contentsline {subsection}{\numberline {8.2.1}\emph  {class} Camera}{22}{subsection.8.2.1}}
\newlabel{edt:class-camera}{{8.2.1}{22}{\emph {class} Camera\relax }{subsection.8.2.1}{}}
\newlabel{edt:edt.Camera}{{8.2.1}{22}{\emph {class} Camera\relax }{section*.55}{}}
\@writefile{toc}{\contentsline {subsubsection}{Methods}{22}{subsubsection*.56}}
\newlabel{edt:methods}{{8.2.1}{22}{Methods\relax }{subsubsection*.56}{}}
\@writefile{toc}{\contentsline {paragraph}{Exposures \& Handler}{22}{paragraph*.57}}
\newlabel{edt:exposures-handler}{{8.2.1}{22}{Exposures \& Handler\relax }{paragraph*.57}{}}
\newlabel{edt:edt.Camera.handler}{{8.2.1}{22}{Exposures \& Handler\relax }{section*.58}{}}
\newlabel{edt:edt.Camera.start}{{8.2.1}{22}{Exposures \& Handler\relax }{section*.59}{}}
\newlabel{edt:edt.Camera.stop}{{8.2.1}{23}{Exposures \& Handler\relax }{section*.60}{}}
\@writefile{toc}{\contentsline {paragraph}{Camera Commands \& Messages}{23}{paragraph*.61}}
\newlabel{edt:camera-commands-messages}{{8.2.1}{23}{Camera Commands \& Messages\relax }{paragraph*.61}{}}
\newlabel{edt:edt.Camera.messages}{{8.2.1}{23}{Camera Commands \& Messages\relax }{section*.62}{}}
\newlabel{edt:edt.Camera.notify}{{8.2.1}{23}{Camera Commands \& Messages\relax }{section*.63}{}}
\newlabel{edt:edt.Camera.serial}{{8.2.1}{23}{Camera Commands \& Messages\relax }{section*.64}{}}
\newlabel{edt:edt.Camera.timing}{{8.2.1}{23}{Camera Commands \& Messages\relax }{section*.65}{}}
\@writefile{toc}{\contentsline {subsubsection}{Members}{23}{subsubsection*.66}}
\newlabel{edt:members}{{8.2.1}{23}{Members\relax }{subsubsection*.66}{}}
\newlabel{edt:edt.Camera.config}{{8.2.1}{23}{Members\relax }{section*.67}{}}
\newlabel{edt:edt.Camera.depth}{{8.2.1}{23}{Members\relax }{section*.68}{}}
\newlabel{edt:edt.Camera.handlers}{{8.2.1}{23}{Members\relax }{section*.69}{}}
\newlabel{edt:edt.Camera.height}{{8.2.1}{23}{Members\relax }{section*.70}{}}
\newlabel{edt:edt.Camera.interval}{{8.2.1}{23}{Members\relax }{section*.71}{}}
\newlabel{edt:edt.Camera.processing}{{8.2.1}{23}{Members\relax }{section*.72}{}}
\newlabel{edt:edt.Camera.unit}{{8.2.1}{23}{Members\relax }{section*.73}{}}
\newlabel{edt:edt.Camera.width}{{8.2.1}{24}{Members\relax }{section*.74}{}}
\@writefile{toc}{\contentsline {subsection}{\numberline {8.2.2}\emph  {class} Handler}{24}{subsection.8.2.2}}
\newlabel{edt:class-handler}{{8.2.2}{24}{\emph {class} Handler\relax }{subsection.8.2.2}{}}
\newlabel{edt:edt.Handler}{{8.2.2}{24}{\emph {class} Handler\relax }{section*.75}{}}
\@writefile{toc}{\contentsline {subsubsection}{Methods}{24}{subsubsection*.76}}
\newlabel{edt:id1}{{8.2.2}{24}{Methods\relax }{subsubsection*.76}{}}
\newlabel{edt:edt.Handler.configure}{{8.2.2}{24}{Methods\relax }{section*.77}{}}
\@writefile{toc}{\contentsline {subsubsection}{Members}{24}{subsubsection*.78}}
\newlabel{edt:id2}{{8.2.2}{24}{Members\relax }{subsubsection*.78}{}}
\newlabel{edt:edt.Handler.name}{{8.2.2}{24}{Members\relax }{section*.79}{}}
\@writefile{toc}{\contentsline {subsection}{\numberline {8.2.3}Processing Thread}{24}{subsection.8.2.3}}
\newlabel{edt:processing-thread}{{8.2.3}{24}{Processing Thread\relax }{subsection.8.2.3}{}}
\newlabel{edt:frameProcessing}{{8.2.3}{24}{Processing Thread\relax }{section*.80}{}}
\newlabel{edt:functionName}{{8.2.3}{24}{Processing Thread\relax }{section*.81}{}}
\@writefile{toc}{\contentsline {chapter}{\numberline {9}Indices and tables}{25}{chapter.9}}
\@writefile{lof}{\addvspace {10\p@ }}
\@writefile{lot}{\addvspace {10\p@ }}
\newlabel{index:indices-and-tables}{{9}{25}{Indices and tables\relax }{chapter.9}{}}
\@writefile{toc}{\contentsline {chapter}{Python Module Index}{27}{section*.82}}
