\relax 
\@writefile{toc}{\string\contentsline\space {section}{\string\numberline\space {1}Displaying images}{1}}
\@writefile{toc}{\string\contentsline\space {section}{\string\numberline\space {2}Displaying multiple images}{2}}
\@writefile{toc}{\string\contentsline\space {section}{\string\numberline\space {3}Maintaining separate image and graphics displays}{3}}
\newlabel{tvdevice}{{3}{3}}
\@writefile{toc}{\string\contentsline\space {section}{\string\numberline\space {4}Manipulating flags}{4}}
\newlabel{flags}{{4}{4}}
\@writefile{toc}{\string\contentsline\space {section}{\string\numberline\space {5}Combining images and graphics}{5}}
\@writefile{toc}{\string\contentsline\space {subsection}{\string\numberline\space {5.1}By using special commands}{5}}
\newlabel{equivalents}{{5.1}{5}}
\@writefile{toc}{\string\contentsline\space {subsection}{\string\numberline\space {5.2}By using regular data coordinates}{5}}
\@writefile{toc}{\string\contentsline\space {subsection}{\string\numberline\space {5.3}By using PLOT\unhbox \voidb@x \kern .06em \vbox {\hrule width.3em}IMAGE and OPLOT\unhbox \voidb@x \kern .06em \vbox {\hrule width.3em}IMAGE}{6}}
\@writefile{toc}{\string\contentsline\space {section}{\string\numberline\space {6}Displaying velocity images, and manipulating color tables}{7}}
\@writefile{toc}{\string\contentsline\space {section}{\string\numberline\space {7}Keywords}{7}}
\newlabel{keywords}{{7}{7}}
\@writefile{toc}{\string\contentsline\space {section}{\string\numberline\space {8}Printing images}{10}}
\@writefile{toc}{\string\contentsline\space {section}{\string\numberline\space {9}Miscellaneous routines}{11}}
\@writefile{toc}{\string\contentsline\space {section}{\string\numberline\space {10}Internal routines}{12}}
